…
```r
world_cont = world %>% 
        group_by(continent) %>% 
        summarize(pop_sum = sum(pop, na.rm = TRUE))
```


```
## Simple feature collection with 8 features and 2 fields
## Geometry type: GEOMETRY
## Dimension:     XY
## Bounding box:  xmin: -180 ymin: -89.9 xmax: 180 ymax: 83.64513
## Geodetic CRS:  WGS 84
## # A tibble: 8 x 3
##   continent    pop_sum                                                                          geom
##   <chr>          <dbl>                                                            <MULTIPOLYGON [°]>
## 1 Africa    1154946633 (((43.1453 11.46204, 42.71587 11.73564, 43.28638 11.97493, 43.31785 12.39015…
## # … with 7 more rows
```
…
