Modeling
…
## [1] 2.665212

Now we can use purrr to compute the distance for all the models
defined above. We need a helper function because our distance function
expects the model as a numeric vector of length 2.

sim1_dist <- function(a1, a2) {
  measure_distance(c(a1, a2), sim1)
}

models <- models %>% 
  mutate(dist = purrr::map2_dbl(a1, a2, sim1_dist))
models

## # A tibble: 250 × 3
##         a1     a2  dist
##      <dbl>  <dbl> <dbl>
##  1  -2.49   2.16   6.50
##  2  -7.05  -1.58  33.0 
##  3 -13.0   -0.477 32.0 
##  4   0.377  3.32   5.28
##  5  29.7    1.80  24.2 
##  6 -18.8   -3.13  53.6 
##  7  15.9   -0.842  9.57
##  8  13.6   -0.107  7.01
##  9  25.3   -2.92  15.7 
## 10 -17.1   -3.37  53.5 
## # ℹ 240 more rows
…
We add residuals to the data with add_residuals(), which
works much like add_predictions(). Note, however, that we
use the original dataset, not a manufactured grid. This is because to
compute residuals we need actual y values.

sim1 <- sim1 %>% 
  add_residuals(sim1_mod)
sim1

## # A tibble: 30 × 3
##        x     y    resid
##    <int> <dbl>    <dbl>
##  1     1  4.20 -2.07   
##  2     1  7.51  1.24   
##  3     1  2.13 -4.15   
##  4     2  8.99  0.665  
##  5     2 10.2   1.92   
##  6     2 11.3   2.97   
##  7     3  7.36 -3.02   
##  8     3 10.5   0.130  
##  9     3 10.5   0.136  
## 10     4 12.4   0.00763
## # ℹ 20 more rows
…
To generate predictions from both models simultaneously, we can
use gather_predictions() which adds each prediction as a
row. The complement of gather_predictions() is
spread_predictions() which adds each prediction to a new
column.

Together this gives us:

grid <- sim3 %>% 
  data_grid(x1, x2) %>% 
  gather_predictions(mod1, mod2)
grid

## # A tibble: 80 × 4
##    model    x1 x2     pred
##    <chr> <int> <fct> <dbl>
##  1 mod1      1 a      1.67
##  2 mod1      1 b      4.56
##  3 mod1      1 c      6.48
##  4 mod1      1 d      4.03
##  5 mod1      2 a      1.48
##  6 mod1      2 b      4.37
##  7 mod1      2 c      6.28
##  8 mod1      2 d      3.84
##  9 mod1      3 a      1.28
## 10 mod1      3 b      4.17
## # ℹ 70 more rows
…
mod1 <- lm(y ~ x1 + x2, data = sim4)
mod2 <- lm(y ~ x1 * x2, data = sim4)

grid <- sim4 %>% 
  data_grid(
    x1 = seq_range(x1, 5), 
    x2 = seq_range(x2, 5) 
  ) %>% 
  gather_predictions(mod1, mod2)
grid

## # A tibble: 50 × 4
##    model    x1    x2   pred
##    <chr> <dbl> <dbl>  <dbl>
##  1 mod1   -1    -1    0.996
##  2 mod1   -1    -0.5 -0.395
##  3 mod1   -1     0   -1.79 
##  4 mod1   -1     0.5 -3.18 
##  5 mod1   -1     1   -4.57 
##  6 mod1   -0.5  -1    1.91 
##  7 mod1   -0.5  -0.5  0.516
##  8 mod1   -0.5   0   -0.875
##  9 mod1   -0.5   0.5 -2.27 
## 10 mod1   -0.5   1   -3.66 
## # ℹ 40 more rows
…
